\relax 
\@writefile{toc}{\contentsline {section}{\numberline {1}Introduction}{1}}
\newlabel{eq_taylor}{{4}{1}}
\@writefile{lof}{\contentsline {figure}{\numberline {1}{\ignorespaces The Error Function. The gaussian was numerically integrated in the interval $[-3,3]$. Indeed, the Error Function is an odd function. Furthermore, the Taylor expansion to fourth order i plotted with points. Between $x=-1$ and $x=1$ it is a good approximation but as a whole it certainly is not. }}{2}}
\newlabel{fig_erf}{{1}{2}}
