<?xml version="1.0" encoding="utf-8"  standalone="no"?>
<svg 
 width="600" height="480"
 viewBox="0 0 600 480"
 xmlns="http://www.w3.org/2000/svg"
 xmlns:xlink="http://www.w3.org/1999/xlink"
>

<title>Gnuplot</title>
<desc>Produced by GNUPLOT 5.2 patchlevel 3 </desc>

<g id="gnuplot_canvas">

<rect x="0" y="0" width="600" height="480" fill="#ffffff"/>
<defs>

	<circle id='gpDot' r='0.5' stroke-width='0.5' stroke='currentColor'/>
	<path id='gpPt0' stroke-width='0.222' stroke='currentColor' d='M-1,0 h2 M0,-1 v2'/>
	<path id='gpPt1' stroke-width='0.222' stroke='currentColor' d='M-1,-1 L1,1 M1,-1 L-1,1'/>
	<path id='gpPt2' stroke-width='0.222' stroke='currentColor' d='M-1,0 L1,0 M0,-1 L0,1 M-1,-1 L1,1 M-1,1 L1,-1'/>
	<rect id='gpPt3' stroke-width='0.222' stroke='currentColor' x='-1' y='-1' width='2' height='2'/>
	<rect id='gpPt4' stroke-width='0.222' stroke='currentColor' fill='currentColor' x='-1' y='-1' width='2' height='2'/>
	<circle id='gpPt5' stroke-width='0.222' stroke='currentColor' cx='0' cy='0' r='1'/>
	<use xlink:href='#gpPt5' id='gpPt6' fill='currentColor' stroke='none'/>
	<path id='gpPt7' stroke-width='0.222' stroke='currentColor' d='M0,-1.33 L-1.33,0.67 L1.33,0.67 z'/>
	<use xlink:href='#gpPt7' id='gpPt8' fill='currentColor' stroke='none'/>
	<use xlink:href='#gpPt7' id='gpPt9' stroke='currentColor' transform='rotate(180)'/>
	<use xlink:href='#gpPt9' id='gpPt10' fill='currentColor' stroke='none'/>
	<use xlink:href='#gpPt3' id='gpPt11' stroke='currentColor' transform='rotate(45)'/>
	<use xlink:href='#gpPt11' id='gpPt12' fill='currentColor' stroke='none'/>
	<path id='gpPt13' stroke-width='0.222' stroke='currentColor' d='M0,1.330 L1.265,0.411 L0.782,-1.067 L-0.782,-1.076 L-1.265,0.411 z'/>
	<use xlink:href='#gpPt13' id='gpPt14' fill='currentColor' stroke='none'/>
	<filter id='textbox' filterUnits='objectBoundingBox' x='0' y='0' height='1' width='1'>
	  <feFlood flood-color='#FFFFFF' flood-opacity='1' result='bgnd'/>
	  <feComposite in='SourceGraphic' in2='bgnd' operator='atop'/>
	</filter>
	<filter id='greybox' filterUnits='objectBoundingBox' x='0' y='0' height='1' width='1'>
	  <feFlood flood-color='lightgrey' flood-opacity='1' result='grey'/>
	  <feComposite in='SourceGraphic' in2='grey' operator='atop'/>
	</filter>
</defs>
<g fill="none" color="#FFFFFF" stroke="currentColor" stroke-width="1.00" stroke-linecap="butt" stroke-linejoin="miter">
</g>
<g fill="none" color="black" stroke="currentColor" stroke-width="1.00" stroke-linecap="butt" stroke-linejoin="miter">
	<path stroke='black'  d='M55.3,422.4 L64.3,422.4 M575.0,422.4 L566.0,422.4  '/>	<g transform="translate(47.0,426.3)" stroke="none" fill="black" font-family="Arial" font-size="12.00"  text-anchor="end">
		<text><tspan font-family="Arial" >-2</tspan></text>
	</g>
</g>
<g fill="none" color="black" stroke="currentColor" stroke-width="1.00" stroke-linecap="butt" stroke-linejoin="miter">
	<path stroke='black'  d='M55.3,348.7 L64.3,348.7 M575.0,348.7 L566.0,348.7  '/>	<g transform="translate(47.0,352.6)" stroke="none" fill="black" font-family="Arial" font-size="12.00"  text-anchor="end">
		<text><tspan font-family="Arial" >-1</tspan></text>
	</g>
</g>
<g fill="none" color="black" stroke="currentColor" stroke-width="1.00" stroke-linecap="butt" stroke-linejoin="miter">
	<path stroke='black'  d='M55.3,275.1 L64.3,275.1 M575.0,275.1 L566.0,275.1  '/>	<g transform="translate(47.0,279.0)" stroke="none" fill="black" font-family="Arial" font-size="12.00"  text-anchor="end">
		<text><tspan font-family="Arial" > 0</tspan></text>
	</g>
</g>
<g fill="none" color="black" stroke="currentColor" stroke-width="1.00" stroke-linecap="butt" stroke-linejoin="miter">
	<path stroke='black'  d='M55.3,201.4 L64.3,201.4 M575.0,201.4 L566.0,201.4  '/>	<g transform="translate(47.0,205.3)" stroke="none" fill="black" font-family="Arial" font-size="12.00"  text-anchor="end">
		<text><tspan font-family="Arial" > 1</tspan></text>
	</g>
</g>
<g fill="none" color="black" stroke="currentColor" stroke-width="1.00" stroke-linecap="butt" stroke-linejoin="miter">
	<path stroke='black'  d='M55.3,127.8 L64.3,127.8 M575.0,127.8 L566.0,127.8  '/>	<g transform="translate(47.0,131.7)" stroke="none" fill="black" font-family="Arial" font-size="12.00"  text-anchor="end">
		<text><tspan font-family="Arial" > 2</tspan></text>
	</g>
</g>
<g fill="none" color="black" stroke="currentColor" stroke-width="1.00" stroke-linecap="butt" stroke-linejoin="miter">
	<path stroke='black'  d='M55.3,54.1 L64.3,54.1 M575.0,54.1 L566.0,54.1  '/>	<g transform="translate(47.0,58.0)" stroke="none" fill="black" font-family="Arial" font-size="12.00"  text-anchor="end">
		<text><tspan font-family="Arial" > 3</tspan></text>
	</g>
</g>
<g fill="none" color="black" stroke="currentColor" stroke-width="1.00" stroke-linecap="butt" stroke-linejoin="miter">
	<path stroke='black'  d='M55.3,422.4 L55.3,413.4 M55.3,54.1 L55.3,63.1  '/>	<g transform="translate(55.3,444.3)" stroke="none" fill="black" font-family="Arial" font-size="12.00"  text-anchor="middle">
		<text><tspan font-family="Arial" > 0</tspan></text>
	</g>
</g>
<g fill="none" color="black" stroke="currentColor" stroke-width="1.00" stroke-linecap="butt" stroke-linejoin="miter">
	<path stroke='black'  d='M159.2,422.4 L159.2,413.4 M159.2,54.1 L159.2,63.1  '/>	<g transform="translate(159.2,444.3)" stroke="none" fill="black" font-family="Arial" font-size="12.00"  text-anchor="middle">
		<text><tspan font-family="Arial" > 2</tspan></text>
	</g>
</g>
<g fill="none" color="black" stroke="currentColor" stroke-width="1.00" stroke-linecap="butt" stroke-linejoin="miter">
	<path stroke='black'  d='M263.2,422.4 L263.2,413.4 M263.2,54.1 L263.2,63.1  '/>	<g transform="translate(263.2,444.3)" stroke="none" fill="black" font-family="Arial" font-size="12.00"  text-anchor="middle">
		<text><tspan font-family="Arial" > 4</tspan></text>
	</g>
</g>
<g fill="none" color="black" stroke="currentColor" stroke-width="1.00" stroke-linecap="butt" stroke-linejoin="miter">
	<path stroke='black'  d='M367.1,422.4 L367.1,413.4 M367.1,54.1 L367.1,63.1  '/>	<g transform="translate(367.1,444.3)" stroke="none" fill="black" font-family="Arial" font-size="12.00"  text-anchor="middle">
		<text><tspan font-family="Arial" > 6</tspan></text>
	</g>
</g>
<g fill="none" color="black" stroke="currentColor" stroke-width="1.00" stroke-linecap="butt" stroke-linejoin="miter">
	<path stroke='black'  d='M471.1,422.4 L471.1,413.4 M471.1,54.1 L471.1,63.1  '/>	<g transform="translate(471.1,444.3)" stroke="none" fill="black" font-family="Arial" font-size="12.00"  text-anchor="middle">
		<text><tspan font-family="Arial" > 8</tspan></text>
	</g>
</g>
<g fill="none" color="black" stroke="currentColor" stroke-width="1.00" stroke-linecap="butt" stroke-linejoin="miter">
	<path stroke='black'  d='M575.0,422.4 L575.0,413.4 M575.0,54.1 L575.0,63.1  '/>	<g transform="translate(575.0,444.3)" stroke="none" fill="black" font-family="Arial" font-size="12.00"  text-anchor="middle">
		<text><tspan font-family="Arial" > 10</tspan></text>
	</g>
</g>
<g fill="none" color="black" stroke="currentColor" stroke-width="1.00" stroke-linecap="butt" stroke-linejoin="miter">
</g>
<g fill="none" color="black" stroke="currentColor" stroke-width="1.00" stroke-linecap="butt" stroke-linejoin="miter">
	<path stroke='black'  d='M55.3,54.1 L55.3,422.4 L575.0,422.4 L575.0,54.1 L55.3,54.1 Z  '/></g>
<g fill="none" color="black" stroke="currentColor" stroke-width="1.00" stroke-linecap="butt" stroke-linejoin="miter">
	<g transform="translate(16.3,238.3) rotate(270)" stroke="none" fill="black" font-family="Arial" font-size="12.00"  text-anchor="middle">
		<text><tspan font-family="Arial" >f(x)=sin(x)</tspan></text>
	</g>
</g>
<g fill="none" color="black" stroke="currentColor" stroke-width="1.00" stroke-linecap="butt" stroke-linejoin="miter">
	<g transform="translate(315.1,471.3)" stroke="none" fill="black" font-family="Arial" font-size="12.00"  text-anchor="middle">
		<text><tspan font-family="Arial" >x</tspan></text>
	</g>
</g>
<g fill="none" color="black" stroke="currentColor" stroke-width="1.00" stroke-linecap="butt" stroke-linejoin="miter">
	<g transform="translate(315.1,31.0)" stroke="none" fill="black" font-family="Arial" font-size="12.00"  text-anchor="middle">
		<text><tspan font-family="Arial" >Linear Interpolation and Integration of sin(x)</tspan></text>
	</g>
</g>
	<g id="gnuplot_plot_1" ><title>points from table</title>
<g fill="none" color="black" stroke="currentColor" stroke-width="1.00" stroke-linecap="butt" stroke-linejoin="miter">
	<g transform="translate(507.9,76.0)" stroke="none" fill="black" font-family="Arial" font-size="12.00"  text-anchor="end">
		<text><tspan font-family="Arial" >points from table</tspan></text>
	</g>
</g>
<g fill="none" color="black" stroke="currentColor" stroke-width="1.00" stroke-linecap="butt" stroke-linejoin="miter">
	<use xlink:href='#gpPt0' transform='translate(81.3,239.8) scale(4.50)' color='rgb(148,   0, 211)'/>
	<use xlink:href='#gpPt0' transform='translate(133.3,201.6) scale(4.50)' color='rgb(148,   0, 211)'/>
	<use xlink:href='#gpPt0' transform='translate(185.2,231.0) scale(4.50)' color='rgb(148,   0, 211)'/>
	<use xlink:href='#gpPt0' transform='translate(237.2,300.9) scale(4.50)' color='rgb(148,   0, 211)'/>
	<use xlink:href='#gpPt0' transform='translate(289.2,347.1) scale(4.50)' color='rgb(148,   0, 211)'/>
	<use xlink:href='#gpPt0' transform='translate(341.1,327.1) scale(4.50)' color='rgb(148,   0, 211)'/>
	<use xlink:href='#gpPt0' transform='translate(393.1,259.2) scale(4.50)' color='rgb(148,   0, 211)'/>
	<use xlink:href='#gpPt0' transform='translate(445.1,206.0) scale(4.50)' color='rgb(148,   0, 211)'/>
	<use xlink:href='#gpPt0' transform='translate(497.0,216.3) scale(4.50)' color='rgb(148,   0, 211)'/>
	<use xlink:href='#gpPt0' transform='translate(549.0,280.6) scale(4.50)' color='rgb(148,   0, 211)'/>
	<use xlink:href='#gpPt0' transform='translate(537.3,72.1) scale(4.50)' color='rgb(148,   0, 211)'/>
</g>
	</g>
	<g id="gnuplot_plot_2" ><title>linterp</title>
<g fill="none" color="black" stroke="currentColor" stroke-width="1.00" stroke-linecap="butt" stroke-linejoin="miter">
	<g transform="translate(507.9,94.0)" stroke="none" fill="black" font-family="Arial" font-size="12.00"  text-anchor="end">
		<text><tspan font-family="Arial" >linterp</tspan></text>
	</g>
</g>
<g fill="none" color="black" stroke="currentColor" stroke-width="1.00" stroke-linecap="butt" stroke-linejoin="miter">
	<path stroke='rgb(  0, 158, 115)'  d='M516.2,90.1 L558.4,90.1 M81.3,239.8 L86.5,235.9 L91.7,232.1 L96.9,228.3 L102.1,224.5 L107.3,220.7
		L112.5,216.9 L117.7,213.1 L122.9,209.2 L128.1,205.4 L133.3,201.6 L138.5,204.5 L143.6,207.5 L148.8,210.4
		L154.0,213.4 L159.2,216.3 L164.4,219.2 L169.6,222.2 L174.8,225.1 L180.0,228.1 L185.2,231.0 L190.4,238.0
		L195.6,245.0 L200.8,252.0 L206.0,259.0 L211.2,266.0 L216.4,272.9 L221.6,279.9 L226.8,286.9 L232.0,293.9
		L237.2,300.9 L242.4,305.5 L247.6,310.2 L252.8,314.8 L258.0,319.4 L263.2,324.0 L268.4,328.6 L273.6,333.2
		L278.8,337.9 L284.0,342.5 L289.2,347.1 L294.4,345.1 L299.6,343.1 L304.8,341.1 L310.0,339.1 L315.2,337.1
		L320.3,335.1 L325.5,333.1 L330.7,331.1 L335.9,329.1 L341.1,327.1 L346.3,320.3 L351.5,313.5 L356.7,306.7
		L361.9,299.9 L367.1,293.1 L372.3,286.4 L377.5,279.6 L382.7,272.8 L387.9,266.0 L393.1,259.2 L398.3,253.9
		L403.5,248.6 L408.7,243.3 L413.9,237.9 L419.1,232.6 L424.3,227.3 L429.5,222.0 L434.7,216.6 L439.9,211.3
		L445.1,206.0 L450.3,207.0 L455.5,208.0 L460.7,209.1 L465.9,210.1 L471.1,211.1 L476.3,212.2 L481.5,213.2
		L486.7,214.2 L491.8,215.2 L497.0,216.3 L502.2,222.7 L507.4,229.1 L512.6,235.6 L517.8,242.0 L523.0,248.4
		L528.2,254.9 L533.4,261.3 L538.6,267.7 L543.8,274.2 L549.0,280.6  '/></g>
	</g>
	<g id="gnuplot_plot_3" ><title>sin(x)</title>
<g fill="none" color="black" stroke="currentColor" stroke-width="1.00" stroke-linecap="butt" stroke-linejoin="miter">
	<g transform="translate(507.9,112.0)" stroke="none" fill="black" font-family="Arial" font-size="12.00"  text-anchor="end">
		<text><tspan font-family="Arial" >sin(x)</tspan></text>
	</g>
</g>
<g fill="none" color="black" stroke="currentColor" stroke-width="1.00" stroke-linecap="butt" stroke-linejoin="miter">
	<path stroke='rgb( 86, 180, 233)'  d='M516.2,108.1 L558.4,108.1 M55.3,275.1 L60.5,267.7 L65.7,260.4 L70.9,253.3 L76.1,246.4 L81.3,239.8
		L86.5,233.5 L91.7,227.6 L96.9,222.2 L102.1,217.4 L107.3,213.1 L112.5,209.4 L117.7,206.4 L122.9,204.1
		L128.1,202.5 L133.3,201.6 L138.5,201.5 L143.6,202.0 L148.8,203.3 L154.0,205.4 L159.2,208.1 L164.4,211.5
		L169.6,215.5 L174.8,220.2 L180.0,225.3 L185.2,231.0 L190.4,237.1 L195.6,243.6 L200.8,250.4 L206.0,257.5
		L211.2,264.7 L216.4,272.0 L221.6,279.4 L226.8,286.7 L232.0,293.9 L237.2,300.9 L242.4,307.7 L247.6,314.1
		L252.8,320.1 L258.0,325.7 L263.2,330.8 L268.4,335.4 L273.6,339.3 L278.8,342.6 L284.0,345.2 L289.2,347.1
		L294.4,348.3 L299.6,348.7 L304.8,348.5 L310.0,347.4 L315.2,345.7 L320.3,343.3 L325.5,340.2 L330.7,336.4
		L335.9,332.0 L341.1,327.1 L346.3,321.6 L351.5,315.6 L356.7,309.3 L361.9,302.6 L367.1,295.7 L372.3,288.5
		L377.5,281.2 L382.7,273.8 L387.9,266.5 L393.1,259.2 L398.3,252.1 L403.5,245.3 L408.7,238.7 L413.9,232.5
		L419.1,226.7 L424.3,221.4 L429.5,216.6 L434.7,212.4 L439.9,208.9 L445.1,206.0 L450.3,203.8 L455.5,202.3
		L460.7,201.5 L465.9,201.5 L471.1,202.2 L476.3,203.6 L481.5,205.8 L486.7,208.6 L491.8,212.1 L497.0,216.3
		L502.2,221.0 L507.4,226.2 L512.6,232.0 L517.8,238.2 L523.0,244.7 L528.2,251.6 L533.4,258.7 L538.6,265.9
		L543.8,273.3 L549.0,280.6 L554.2,287.9 L559.4,295.1 L564.6,302.1 L569.8,308.8 L575.0,315.2  '/></g>
	</g>
	<g id="gnuplot_plot_4" ><title>linterp_integ</title>
<g fill="none" color="black" stroke="currentColor" stroke-width="1.00" stroke-linecap="butt" stroke-linejoin="miter">
	<g transform="translate(507.9,130.0)" stroke="none" fill="black" font-family="Arial" font-size="12.00"  text-anchor="end">
		<text><tspan font-family="Arial" >linterp_integ</tspan></text>
	</g>
</g>
<g fill="none" color="black" stroke="currentColor" stroke-width="1.00" stroke-linecap="butt" stroke-linejoin="miter">
	<use xlink:href='#gpPt3' transform='translate(107.3,305.3) scale(4.50)' color='rgb(230, 159,   0)'/>
	<use xlink:href='#gpPt3' transform='translate(159.2,231.9) scale(4.50)' color='rgb(230, 159,   0)'/>
	<use xlink:href='#gpPt3' transform='translate(211.2,209.2) scale(4.50)' color='rgb(230, 159,   0)'/>
	<use xlink:href='#gpPt3' transform='translate(263.2,235.0) scale(4.50)' color='rgb(230, 159,   0)'/>
	<use xlink:href='#gpPt3' transform='translate(315.2,289.5) scale(4.50)' color='rgb(230, 159,   0)'/>
	<use xlink:href='#gpPt3' transform='translate(367.1,341.5) scale(4.50)' color='rgb(230, 159,   0)'/>
	<use xlink:href='#gpPt3' transform='translate(419.1,329.0) scale(4.50)' color='rgb(230, 159,   0)'/>
	<use xlink:href='#gpPt3' transform='translate(471.1,270.1) scale(4.50)' color='rgb(230, 159,   0)'/>
	<use xlink:href='#gpPt3' transform='translate(523.0,211.2) scale(4.50)' color='rgb(230, 159,   0)'/>
	<use xlink:href='#gpPt3' transform='translate(537.3,126.1) scale(4.50)' color='rgb(230, 159,   0)'/>
</g>
	</g>
	<g id="gnuplot_plot_5" ><title>-cos(x)</title>
<g fill="none" color="black" stroke="currentColor" stroke-width="1.00" stroke-linecap="butt" stroke-linejoin="miter">
	<g transform="translate(507.9,148.0)" stroke="none" fill="black" font-family="Arial" font-size="12.00"  text-anchor="end">
		<text><tspan font-family="Arial" >-cos(x)</tspan></text>
	</g>
</g>
<g fill="none" color="black" stroke="currentColor" stroke-width="1.00" stroke-linecap="butt" stroke-linejoin="miter">
	<path stroke='rgb(240, 228,  66)'  d='M516.2,144.1 L558.4,144.1 M55.3,348.7 L60.5,348.4 L65.7,347.3 L70.9,345.5 L76.1,342.9 L81.3,339.7
		L86.5,335.9 L91.7,331.4 L96.9,326.4 L102.1,320.9 L107.3,314.9 L112.5,308.5 L117.7,301.8 L122.9,294.8
		L128.1,287.6 L133.3,280.3 L138.5,272.9 L143.6,265.6 L148.8,258.3 L154.0,251.3 L159.2,244.4 L164.4,237.9
		L169.6,231.7 L174.8,226.0 L180.0,220.8 L185.2,216.1 L190.4,212.0 L195.6,208.5 L200.8,205.7 L206.0,203.6
		L211.2,202.2 L216.4,201.5 L221.6,201.5 L226.8,202.3 L232.0,203.9 L237.2,206.1 L242.4,209.0 L247.6,212.6
		L252.8,216.8 L258.0,221.6 L263.2,226.9 L268.4,232.7 L273.6,239.0 L278.8,245.6 L284.0,252.4 L289.2,259.6
		L294.4,266.8 L299.6,274.2 L304.8,281.5 L310.0,288.8 L315.2,296.0 L320.3,302.9 L325.5,309.6 L330.7,315.9
		L335.9,321.8 L341.1,327.3 L346.3,332.2 L351.5,336.6 L356.7,340.3 L361.9,343.4 L367.1,345.8 L372.3,347.5
		L377.5,348.5 L382.7,348.7 L387.9,348.2 L393.1,347.0 L398.3,345.1 L403.5,342.4 L408.7,339.1 L413.9,335.2
		L419.1,330.6 L424.3,325.5 L429.5,319.9 L434.7,313.8 L439.9,307.4 L445.1,300.6 L450.3,293.6 L455.5,286.4
		L460.7,279.1 L465.9,271.7 L471.1,264.4 L476.3,257.1 L481.5,250.1 L486.7,243.3 L491.8,236.8 L497.0,230.7
		L502.2,225.1 L507.4,219.9 L512.6,215.3 L517.8,211.3 L523.0,208.0 L528.2,205.3 L533.4,203.3 L538.6,202.0
		L543.8,201.4 L549.0,201.6 L554.2,202.5 L559.4,204.2 L564.6,206.5 L569.8,209.6 L575.0,213.3  '/></g>
	</g>
<g fill="none" color="#FFFFFF" stroke="rgb(240, 228,  66)" stroke-width="2.00" stroke-linecap="butt" stroke-linejoin="miter">
</g>
<g fill="none" color="black" stroke="currentColor" stroke-width="2.00" stroke-linecap="butt" stroke-linejoin="miter">
</g>
<g fill="none" color="black" stroke="black" stroke-width="1.00" stroke-linecap="butt" stroke-linejoin="miter">
</g>
<g fill="none" color="black" stroke="currentColor" stroke-width="1.00" stroke-linecap="butt" stroke-linejoin="miter">
	<path stroke='black'  d='M55.3,54.1 L55.3,422.4 L575.0,422.4 L575.0,54.1 L55.3,54.1 Z  '/></g>
<g fill="none" color="black" stroke="currentColor" stroke-width="1.00" stroke-linecap="butt" stroke-linejoin="miter">
</g>
</g>
</svg>

