\relax 
\@writefile{lof}{\contentsline {figure}{\numberline {1}{\ignorespaces The function $f(x)= \frac  {1}{2} {\setbox \z@ \hbox {\frozen@everymath \@emptytoks \mathsurround \z@ $\nulldelimiterspace \z@ \left (\vcenter to\tw@ \big@size {}\right .$}\box \z@ }x^2 - \frac  {1}{2}x{\setbox \z@ \hbox {\frozen@everymath \@emptytoks \mathsurround \z@ $\nulldelimiterspace \z@ \left )\vcenter to\tw@ \big@size {}\right .$}\box \z@ }$ in $0<x<1$ and the found minimum $x_{min}=0.25$.}}{2}}
\newlabel{fig}{{1}{2}}
